// Vitest Snapshot v1, https://vitest.dev/guide/snapshot.html

exports[`lint config > should return an object with errors array populated if schema is invalid 1`] = `
[
  {
    "instancePath": "/urls",
    "keyword": "minItems",
    "message": "must NOT have fewer than 1 items",
    "params": {
      "limit": 1,
    },
    "schemaPath": "#/properties/urls/minItems",
  },
]
`;

exports[`process config > htmlhint settings > should return valid default htmlhint settings if .htmlhintrc file exists and none specified in config 1`] = `
{
  "alt-require": true,
  "attr-lowercase": true,
  "attr-no-duplication": true,
  "attr-unsafe-chars": true,
  "attr-value-double-quotes": true,
  "attr-value-not-empty": false,
  "doctype-first": true,
  "doctype-html5": true,
  "empty-tag-not-self-closed": true,
  "head-script-disabled": true,
  "href-abs-or-rel": false,
  "html-lang-require": true,
  "id-class-ad-disabled": false,
  "id-class-value": "false",
  "id-unique": true,
  "inline-script-disabled": false,
  "inline-style-disabled": false,
  "space-tab-mixed-disabled": "tab",
  "spec-char-escape": true,
  "src-not-empty": true,
  "style-disabled": false,
  "tag-pair": true,
  "tagname-lowercase": true,
  "title-require": true,
}
`;

exports[`process config > htmlhint settings > should return valid htmlhint settings from file specified in config if file exists 1`] = `
{
  "alt-require": true,
  "attr-lowercase": true,
  "attr-no-duplication": true,
  "attr-unsafe-chars": true,
  "attr-value-double-quotes": false,
  "attr-value-not-empty": false,
  "doctype-first": true,
  "doctype-html5": true,
  "empty-tag-not-self-closed": true,
  "head-script-disabled": true,
  "href-abs-or-rel": false,
  "id-class-ad-disabled": false,
  "id-class-value": "false",
  "id-unique": true,
  "inline-script-disabled": false,
  "inline-style-disabled": true,
  "space-tab-mixed-disabled": "tab",
  "spec-char-escape": true,
  "src-not-empty": true,
  "style-disabled": false,
  "tag-pair": true,
  "tagname-lowercase": true,
  "title-require": false,
}
`;

exports[`process config > puppeteer launch options > should return config with default and config puppeteer launch settings 1`] = `
{
  "args": [
    "--no-sandbox",
  ],
  "headless": "new",
}
`;

exports[`process config > puppeteer launch options > should return config with the default puppeteer launch settings 1`] = `
{
  "headless": "new",
}
`;

exports[`process config > puppeteer launch options > should return config with the puppeteer headless setting true 1`] = `
{
  "headless": true,
}
`;

exports[`process config > sitemap settings > should add sitemap missing urls to urls specified in config 1`] = `
[
  {
    "rawUrl": "https://somewhere.test/brokenLinks.html",
    "settings": {
      "brokenLinkTest": {
        "checkWithBrowser": false,
        "enabled": true,
        "failWarn": false,
        "ignoreDuplicates": true,
      },
      "consoleErrorTest": {
        "enabled": true,
        "failWarn": false,
      },
      "consoleOutputTest": {
        "enabled": true,
        "failWarn": false,
      },
      "externalScriptTest": {
        "enabled": true,
        "failWarn": true,
      },
      "horizontalScrollbarTest": {
        "enabled": false,
        "failWarn": false,
      },
      "pageLoadTimeTest": {
        "enabled": true,
        "failWarn": false,
        "pageLoadTimeThreshold": 2,
      },
      "renderedHtmlTest": {
        "enabled": true,
        "failWarn": false,
      },
    },
    "url": "https://somewhere.test/brokenLinks.html",
  },
  {
    "rawUrl": "https://somewhere.test/dynamicContent.html",
    "settings": {
      "brokenLinkTest": {
        "checkWithBrowser": false,
        "enabled": true,
        "failWarn": false,
        "ignoreDuplicates": true,
      },
      "consoleErrorTest": {
        "enabled": true,
        "failWarn": false,
      },
      "consoleOutputTest": {
        "enabled": true,
        "failWarn": false,
      },
      "externalScriptTest": {
        "enabled": true,
        "failWarn": true,
      },
      "horizontalScrollbarTest": {
        "enabled": true,
        "failWarn": false,
      },
      "pageLoadTimeTest": {
        "enabled": true,
        "failWarn": false,
        "pageLoadTimeThreshold": 2,
      },
      "renderedHtmlTest": {
        "enabled": true,
        "failWarn": false,
      },
    },
    "url": "https://somewhere.test/dynamicContent.html",
  },
  {
    "rawUrl": "https://somewhere.test/duplicateLinks.html",
    "settings": {
      "brokenLinkTest": {
        "checkWithBrowser": false,
        "enabled": true,
        "failWarn": false,
        "ignoreDuplicates": true,
      },
      "consoleErrorTest": {
        "enabled": true,
        "failWarn": false,
      },
      "consoleOutputTest": {
        "enabled": true,
        "failWarn": false,
      },
      "externalScriptTest": {
        "enabled": true,
        "failWarn": true,
      },
      "horizontalScrollbarTest": {
        "enabled": true,
        "failWarn": false,
      },
      "pageLoadTimeTest": {
        "enabled": true,
        "failWarn": false,
        "pageLoadTimeThreshold": 2,
      },
      "renderedHtmlTest": {
        "enabled": true,
        "failWarn": false,
      },
    },
    "url": "https://somewhere.test/duplicateLinks.html",
  },
  {
    "rawUrl": "https://somewhere.test/horizontalScrollbar.html",
    "settings": {
      "brokenLinkTest": {
        "checkWithBrowser": false,
        "enabled": true,
        "failWarn": false,
        "ignoreDuplicates": true,
      },
      "consoleErrorTest": {
        "enabled": true,
        "failWarn": false,
      },
      "consoleOutputTest": {
        "enabled": true,
        "failWarn": false,
      },
      "externalScriptTest": {
        "enabled": true,
        "failWarn": true,
      },
      "horizontalScrollbarTest": {
        "enabled": true,
        "failWarn": false,
      },
      "pageLoadTimeTest": {
        "enabled": true,
        "failWarn": false,
        "pageLoadTimeThreshold": 2,
      },
      "renderedHtmlTest": {
        "enabled": true,
        "failWarn": false,
      },
    },
    "url": "https://somewhere.test/horizontalScrollbar.html",
  },
  {
    "rawUrl": "https://somewhere.test/scriptError404.html",
    "settings": {
      "brokenLinkTest": {
        "checkWithBrowser": false,
        "enabled": true,
        "failWarn": false,
        "ignoreDuplicates": true,
      },
      "consoleErrorTest": {
        "enabled": true,
        "failWarn": false,
      },
      "consoleOutputTest": {
        "enabled": true,
        "failWarn": false,
      },
      "externalScriptTest": {
        "enabled": true,
        "failWarn": true,
      },
      "horizontalScrollbarTest": {
        "enabled": true,
        "failWarn": false,
      },
      "pageLoadTimeTest": {
        "enabled": true,
        "failWarn": false,
        "pageLoadTimeThreshold": 2,
      },
      "renderedHtmlTest": {
        "enabled": true,
        "failWarn": false,
      },
    },
    "url": "https://somewhere.test/scriptError404.html",
  },
]
`;

exports[`process config > sitemap settings > should add sitemap urls to config urls 1`] = `
[
  {
    "rawUrl": "https://somewhere.test/consoleLog.html",
    "settings": {
      "brokenLinkTest": {
        "checkWithBrowser": false,
        "enabled": true,
        "failWarn": false,
        "ignoreDuplicates": true,
      },
      "consoleErrorTest": {
        "enabled": true,
        "failWarn": false,
      },
      "consoleOutputTest": {
        "enabled": true,
        "failWarn": false,
      },
      "externalScriptTest": {
        "enabled": true,
        "failWarn": true,
      },
      "horizontalScrollbarTest": {
        "enabled": true,
        "failWarn": false,
      },
      "pageLoadTimeTest": {
        "enabled": true,
        "failWarn": false,
        "pageLoadTimeThreshold": 2,
      },
      "renderedHtmlTest": {
        "enabled": true,
        "failWarn": false,
      },
    },
    "url": "https://somewhere.test/consoleLog.html",
  },
  {
    "rawUrl": "https://somewhere.test/dynamicContent.html",
    "settings": {
      "brokenLinkTest": {
        "checkWithBrowser": false,
        "enabled": true,
        "failWarn": false,
        "ignoreDuplicates": true,
      },
      "consoleErrorTest": {
        "enabled": true,
        "failWarn": false,
      },
      "consoleOutputTest": {
        "enabled": true,
        "failWarn": false,
      },
      "externalScriptTest": {
        "enabled": true,
        "failWarn": true,
      },
      "horizontalScrollbarTest": {
        "enabled": true,
        "failWarn": false,
      },
      "pageLoadTimeTest": {
        "enabled": true,
        "failWarn": false,
        "pageLoadTimeThreshold": 2,
      },
      "renderedHtmlTest": {
        "enabled": true,
        "failWarn": false,
      },
    },
    "url": "https://somewhere.test/dynamicContent.html",
  },
  {
    "rawUrl": "https://somewhere.test/brokenLinks.html",
    "settings": {
      "brokenLinkTest": {
        "checkWithBrowser": false,
        "enabled": true,
        "failWarn": false,
        "ignoreDuplicates": true,
      },
      "consoleErrorTest": {
        "enabled": true,
        "failWarn": false,
      },
      "consoleOutputTest": {
        "enabled": true,
        "failWarn": false,
      },
      "externalScriptTest": {
        "enabled": true,
        "failWarn": true,
      },
      "horizontalScrollbarTest": {
        "enabled": true,
        "failWarn": false,
      },
      "pageLoadTimeTest": {
        "enabled": true,
        "failWarn": false,
        "pageLoadTimeThreshold": 2,
      },
      "renderedHtmlTest": {
        "enabled": true,
        "failWarn": false,
      },
    },
    "url": "https://somewhere.test/brokenLinks.html",
  },
  {
    "rawUrl": "https://somewhere.test/duplicateLinks.html",
    "settings": {
      "brokenLinkTest": {
        "checkWithBrowser": false,
        "enabled": true,
        "failWarn": false,
        "ignoreDuplicates": true,
      },
      "consoleErrorTest": {
        "enabled": true,
        "failWarn": false,
      },
      "consoleOutputTest": {
        "enabled": true,
        "failWarn": false,
      },
      "externalScriptTest": {
        "enabled": true,
        "failWarn": true,
      },
      "horizontalScrollbarTest": {
        "enabled": true,
        "failWarn": false,
      },
      "pageLoadTimeTest": {
        "enabled": true,
        "failWarn": false,
        "pageLoadTimeThreshold": 2,
      },
      "renderedHtmlTest": {
        "enabled": true,
        "failWarn": false,
      },
    },
    "url": "https://somewhere.test/duplicateLinks.html",
  },
  {
    "rawUrl": "https://somewhere.test/horizontalScrollbar.html",
    "settings": {
      "brokenLinkTest": {
        "checkWithBrowser": false,
        "enabled": true,
        "failWarn": false,
        "ignoreDuplicates": true,
      },
      "consoleErrorTest": {
        "enabled": true,
        "failWarn": false,
      },
      "consoleOutputTest": {
        "enabled": true,
        "failWarn": false,
      },
      "externalScriptTest": {
        "enabled": true,
        "failWarn": true,
      },
      "horizontalScrollbarTest": {
        "enabled": true,
        "failWarn": false,
      },
      "pageLoadTimeTest": {
        "enabled": true,
        "failWarn": false,
        "pageLoadTimeThreshold": 2,
      },
      "renderedHtmlTest": {
        "enabled": true,
        "failWarn": false,
      },
    },
    "url": "https://somewhere.test/horizontalScrollbar.html",
  },
  {
    "rawUrl": "https://somewhere.test/scriptError404.html",
    "settings": {
      "brokenLinkTest": {
        "checkWithBrowser": false,
        "enabled": true,
        "failWarn": false,
        "ignoreDuplicates": true,
      },
      "consoleErrorTest": {
        "enabled": true,
        "failWarn": false,
      },
      "consoleOutputTest": {
        "enabled": true,
        "failWarn": false,
      },
      "externalScriptTest": {
        "enabled": true,
        "failWarn": true,
      },
      "horizontalScrollbarTest": {
        "enabled": true,
        "failWarn": false,
      },
      "pageLoadTimeTest": {
        "enabled": true,
        "failWarn": false,
        "pageLoadTimeThreshold": 2,
      },
      "renderedHtmlTest": {
        "enabled": true,
        "failWarn": false,
      },
    },
    "url": "https://somewhere.test/scriptError404.html",
  },
]
`;

exports[`process config > sitemap settings > should populate urls with sitemap if no urls specified in config 1`] = `
[
  {
    "rawUrl": "https://somewhere.test/brokenLinks.html",
    "settings": {
      "brokenLinkTest": {
        "checkWithBrowser": false,
        "enabled": true,
        "failWarn": false,
        "ignoreDuplicates": true,
      },
      "consoleErrorTest": {
        "enabled": true,
        "failWarn": false,
      },
      "consoleOutputTest": {
        "enabled": true,
        "failWarn": false,
      },
      "externalScriptTest": {
        "enabled": true,
        "failWarn": true,
      },
      "horizontalScrollbarTest": {
        "enabled": true,
        "failWarn": false,
      },
      "pageLoadTimeTest": {
        "enabled": true,
        "failWarn": false,
        "pageLoadTimeThreshold": 2,
      },
      "renderedHtmlTest": {
        "enabled": true,
        "failWarn": false,
      },
    },
    "url": "https://somewhere.test/brokenLinks.html",
  },
  {
    "rawUrl": "https://somewhere.test/duplicateLinks.html",
    "settings": {
      "brokenLinkTest": {
        "checkWithBrowser": false,
        "enabled": true,
        "failWarn": false,
        "ignoreDuplicates": true,
      },
      "consoleErrorTest": {
        "enabled": true,
        "failWarn": false,
      },
      "consoleOutputTest": {
        "enabled": true,
        "failWarn": false,
      },
      "externalScriptTest": {
        "enabled": true,
        "failWarn": true,
      },
      "horizontalScrollbarTest": {
        "enabled": true,
        "failWarn": false,
      },
      "pageLoadTimeTest": {
        "enabled": true,
        "failWarn": false,
        "pageLoadTimeThreshold": 2,
      },
      "renderedHtmlTest": {
        "enabled": true,
        "failWarn": false,
      },
    },
    "url": "https://somewhere.test/duplicateLinks.html",
  },
  {
    "rawUrl": "https://somewhere.test/horizontalScrollbar.html",
    "settings": {
      "brokenLinkTest": {
        "checkWithBrowser": false,
        "enabled": true,
        "failWarn": false,
        "ignoreDuplicates": true,
      },
      "consoleErrorTest": {
        "enabled": true,
        "failWarn": false,
      },
      "consoleOutputTest": {
        "enabled": true,
        "failWarn": false,
      },
      "externalScriptTest": {
        "enabled": true,
        "failWarn": true,
      },
      "horizontalScrollbarTest": {
        "enabled": true,
        "failWarn": false,
      },
      "pageLoadTimeTest": {
        "enabled": true,
        "failWarn": false,
        "pageLoadTimeThreshold": 2,
      },
      "renderedHtmlTest": {
        "enabled": true,
        "failWarn": false,
      },
    },
    "url": "https://somewhere.test/horizontalScrollbar.html",
  },
  {
    "rawUrl": "https://somewhere.test/scriptError404.html",
    "settings": {
      "brokenLinkTest": {
        "checkWithBrowser": false,
        "enabled": true,
        "failWarn": false,
        "ignoreDuplicates": true,
      },
      "consoleErrorTest": {
        "enabled": true,
        "failWarn": false,
      },
      "consoleOutputTest": {
        "enabled": true,
        "failWarn": false,
      },
      "externalScriptTest": {
        "enabled": true,
        "failWarn": true,
      },
      "horizontalScrollbarTest": {
        "enabled": true,
        "failWarn": false,
      },
      "pageLoadTimeTest": {
        "enabled": true,
        "failWarn": false,
        "pageLoadTimeThreshold": 2,
      },
      "renderedHtmlTest": {
        "enabled": true,
        "failWarn": false,
      },
    },
    "url": "https://somewhere.test/scriptError404.html",
  },
]
`;

exports[`process config > test settings > should return config with default and test-specific settings 1`] = `
[
  {
    "rawUrl": "localhost/tests/fixtures/site/consoleLog.html",
    "settings": {
      "brokenLinkTest": {
        "checkWithBrowser": false,
        "enabled": true,
        "failWarn": false,
        "ignoreDuplicates": true,
      },
      "consoleErrorTest": {
        "enabled": true,
        "failWarn": false,
      },
      "consoleOutputTest": {
        "enabled": true,
        "failWarn": false,
      },
      "externalScriptTest": {
        "enabled": true,
        "failWarn": true,
      },
      "horizontalScrollbarTest": {
        "enabled": true,
        "failWarn": false,
      },
      "pageLoadTimeTest": {
        "enabled": true,
        "failWarn": false,
        "pageLoadTimeThreshold": 2,
      },
      "renderedHtmlTest": {
        "enabled": true,
        "failWarn": false,
      },
    },
    "url": "https://localhost/tests/fixtures/site/consoleLog.html",
  },
  {
    "rawUrl": "localhost/tests/fixtures/site/dynamicContent.html",
    "settings": {
      "brokenLinkTest": {
        "checkWithBrowser": false,
        "enabled": true,
        "failWarn": false,
        "ignoreDuplicates": true,
      },
      "consoleErrorTest": {
        "enabled": true,
        "failWarn": false,
      },
      "consoleOutputTest": {
        "enabled": true,
        "failWarn": false,
      },
      "externalScriptTest": {
        "enabled": true,
        "failWarn": true,
      },
      "horizontalScrollbarTest": {
        "enabled": true,
        "failWarn": false,
      },
      "pageLoadTimeTest": {
        "enabled": true,
        "failWarn": false,
        "pageLoadTimeThreshold": 2,
      },
      "renderedHtmlTest": {
        "enabled": true,
        "failWarn": false,
      },
    },
    "url": "https://localhost/tests/fixtures/site/dynamicContent.html",
  },
  {
    "rawUrl": "localhost/tests/fixtures/site/horizontalScrollbar.html",
    "settings": {
      "brokenLinkTest": {
        "checkWithBrowser": false,
        "enabled": true,
        "failWarn": false,
        "ignoreDuplicates": true,
      },
      "consoleErrorTest": {
        "enabled": true,
        "failWarn": false,
      },
      "consoleOutputTest": {
        "enabled": true,
        "failWarn": false,
      },
      "externalScriptTest": {
        "enabled": true,
        "failWarn": true,
      },
      "horizontalScrollbarTest": {
        "enabled": false,
        "failWarn": false,
      },
      "pageLoadTimeTest": {
        "enabled": false,
        "failWarn": false,
        "pageLoadTimeThreshold": 2,
      },
      "renderedHtmlTest": {
        "enabled": true,
        "failWarn": false,
      },
    },
    "url": "https://localhost/tests/fixtures/site/horizontalScrollbar.html",
  },
  {
    "rawUrl": "localhost/tests/fixtures/site/htmlError.html",
    "settings": {
      "brokenLinkTest": {
        "checkWithBrowser": false,
        "enabled": true,
        "failWarn": false,
        "ignoreDuplicates": true,
      },
      "consoleErrorTest": {
        "enabled": true,
        "failWarn": false,
      },
      "consoleOutputTest": {
        "enabled": true,
        "failWarn": false,
      },
      "externalScriptTest": {
        "enabled": true,
        "failWarn": true,
      },
      "horizontalScrollbarTest": {
        "enabled": true,
        "failWarn": false,
      },
      "pageLoadTimeTest": {
        "enabled": true,
        "failWarn": false,
        "pageLoadTimeThreshold": 2,
      },
      "renderedHtmlTest": {
        "enabled": true,
        "failWarn": false,
      },
    },
    "url": "https://localhost/tests/fixtures/site/htmlError.html",
  },
  {
    "rawUrl": "localhost/tests/fixtures/site/scriptError404.html",
    "settings": {
      "brokenLinkTest": {
        "checkWithBrowser": false,
        "enabled": true,
        "failWarn": false,
        "ignoreDuplicates": true,
      },
      "consoleErrorTest": {
        "enabled": false,
        "failWarn": false,
      },
      "consoleOutputTest": {
        "enabled": false,
        "failWarn": false,
      },
      "externalScriptTest": {
        "enabled": true,
        "failWarn": true,
      },
      "horizontalScrollbarTest": {
        "enabled": true,
        "failWarn": false,
      },
      "pageLoadTimeTest": {
        "enabled": true,
        "failWarn": false,
        "pageLoadTimeThreshold": 1,
      },
      "renderedHtmlTest": {
        "enabled": true,
        "failWarn": false,
      },
    },
    "url": "https://localhost/tests/fixtures/site/scriptError404.html",
  },
]
`;

exports[`process config > test settings > should return config with default test settings 1`] = `
[
  {
    "rawUrl": "localhost/tests/fixtures/site/consoleLog.html",
    "settings": {
      "brokenLinkTest": {
        "checkWithBrowser": false,
        "enabled": true,
        "failWarn": false,
        "ignoreDuplicates": true,
      },
      "consoleErrorTest": {
        "enabled": true,
        "failWarn": false,
      },
      "consoleOutputTest": {
        "enabled": true,
        "failWarn": false,
      },
      "externalScriptTest": {
        "enabled": true,
        "failWarn": true,
      },
      "horizontalScrollbarTest": {
        "enabled": true,
        "failWarn": false,
      },
      "pageLoadTimeTest": {
        "enabled": true,
        "failWarn": false,
        "pageLoadTimeThreshold": 2,
      },
      "renderedHtmlTest": {
        "enabled": true,
        "failWarn": false,
      },
    },
    "url": "https://localhost/tests/fixtures/site/consoleLog.html",
  },
  {
    "rawUrl": "localhost/tests/fixtures/site/dynamicContent.html",
    "settings": {
      "brokenLinkTest": {
        "checkWithBrowser": false,
        "enabled": true,
        "failWarn": false,
        "ignoreDuplicates": true,
      },
      "consoleErrorTest": {
        "enabled": true,
        "failWarn": false,
      },
      "consoleOutputTest": {
        "enabled": true,
        "failWarn": false,
      },
      "externalScriptTest": {
        "enabled": true,
        "failWarn": true,
      },
      "horizontalScrollbarTest": {
        "enabled": true,
        "failWarn": false,
      },
      "pageLoadTimeTest": {
        "enabled": true,
        "failWarn": false,
        "pageLoadTimeThreshold": 2,
      },
      "renderedHtmlTest": {
        "enabled": true,
        "failWarn": false,
      },
    },
    "url": "https://localhost/tests/fixtures/site/dynamicContent.html",
  },
]
`;

exports[`process config > test settings > should return config with default, global, and test-specific settings 1`] = `
[
  {
    "rawUrl": "localhost/tests/fixtures/site/consoleLog.html",
    "settings": {
      "brokenLinkTest": {
        "checkWithBrowser": false,
        "enabled": true,
        "failWarn": false,
        "ignoreDuplicates": true,
      },
      "consoleErrorTest": {
        "enabled": true,
        "failWarn": false,
      },
      "consoleOutputTest": {
        "enabled": true,
        "failWarn": false,
      },
      "externalScriptTest": {
        "enabled": true,
        "failWarn": true,
      },
      "horizontalScrollbarTest": {
        "enabled": false,
        "failWarn": false,
      },
      "pageLoadTimeTest": {
        "enabled": false,
        "failWarn": false,
        "pageLoadTimeThreshold": 2,
      },
      "renderedHtmlTest": {
        "enabled": true,
        "failWarn": false,
      },
    },
    "url": "https://localhost/tests/fixtures/site/consoleLog.html",
  },
  {
    "rawUrl": "localhost/tests/fixtures/site/dynamicContent.html",
    "settings": {
      "brokenLinkTest": {
        "checkWithBrowser": false,
        "enabled": true,
        "failWarn": false,
        "ignoreDuplicates": true,
      },
      "consoleErrorTest": {
        "enabled": true,
        "failWarn": false,
      },
      "consoleOutputTest": {
        "enabled": true,
        "failWarn": false,
      },
      "externalScriptTest": {
        "enabled": true,
        "failWarn": true,
      },
      "horizontalScrollbarTest": {
        "enabled": false,
        "failWarn": false,
      },
      "pageLoadTimeTest": {
        "enabled": false,
        "failWarn": false,
        "pageLoadTimeThreshold": 2,
      },
      "renderedHtmlTest": {
        "enabled": true,
        "failWarn": false,
      },
    },
    "url": "https://localhost/tests/fixtures/site/dynamicContent.html",
  },
  {
    "rawUrl": "localhost/tests/fixtures/site/horizontalScrollbar.html",
    "settings": {
      "brokenLinkTest": {
        "checkWithBrowser": false,
        "enabled": true,
        "failWarn": false,
        "ignoreDuplicates": true,
      },
      "consoleErrorTest": {
        "enabled": true,
        "failWarn": false,
      },
      "consoleOutputTest": {
        "enabled": true,
        "failWarn": false,
      },
      "externalScriptTest": {
        "enabled": true,
        "failWarn": true,
      },
      "horizontalScrollbarTest": {
        "enabled": true,
        "failWarn": false,
      },
      "pageLoadTimeTest": {
        "enabled": false,
        "failWarn": false,
        "pageLoadTimeThreshold": 2,
      },
      "renderedHtmlTest": {
        "enabled": true,
        "failWarn": false,
      },
    },
    "url": "https://localhost/tests/fixtures/site/horizontalScrollbar.html",
  },
  {
    "rawUrl": "localhost/tests/fixtures/site/htmlError.html",
    "settings": {
      "brokenLinkTest": {
        "checkWithBrowser": false,
        "enabled": true,
        "failWarn": false,
        "ignoreDuplicates": true,
      },
      "consoleErrorTest": {
        "enabled": true,
        "failWarn": false,
      },
      "consoleOutputTest": {
        "enabled": true,
        "failWarn": false,
      },
      "externalScriptTest": {
        "enabled": true,
        "failWarn": true,
      },
      "horizontalScrollbarTest": {
        "enabled": false,
        "failWarn": false,
      },
      "pageLoadTimeTest": {
        "enabled": false,
        "failWarn": false,
        "pageLoadTimeThreshold": 2,
      },
      "renderedHtmlTest": {
        "enabled": true,
        "failWarn": false,
      },
    },
    "url": "https://localhost/tests/fixtures/site/htmlError.html",
  },
  {
    "rawUrl": "localhost/tests/fixtures/site/scriptError404.html",
    "settings": {
      "brokenLinkTest": {
        "checkWithBrowser": false,
        "enabled": true,
        "failWarn": false,
        "ignoreDuplicates": true,
      },
      "consoleErrorTest": {
        "enabled": false,
        "failWarn": false,
      },
      "consoleOutputTest": {
        "enabled": false,
        "failWarn": false,
      },
      "externalScriptTest": {
        "enabled": true,
        "failWarn": true,
      },
      "horizontalScrollbarTest": {
        "enabled": false,
        "failWarn": false,
      },
      "pageLoadTimeTest": {
        "enabled": false,
        "failWarn": false,
        "pageLoadTimeThreshold": 1,
      },
      "renderedHtmlTest": {
        "enabled": true,
        "failWarn": false,
      },
    },
    "url": "https://localhost/tests/fixtures/site/scriptError404.html",
  },
]
`;

exports[`process config > test settings > should return config with global test settings 1`] = `
[
  {
    "rawUrl": "localhost/tests/fixtures/site/consoleLog.html",
    "settings": {
      "brokenLinkTest": {
        "checkWithBrowser": false,
        "enabled": true,
        "failWarn": false,
        "ignoreDuplicates": true,
      },
      "consoleErrorTest": {
        "enabled": true,
        "failWarn": false,
      },
      "consoleOutputTest": {
        "enabled": false,
        "failWarn": false,
      },
      "externalScriptTest": {
        "enabled": true,
        "failWarn": true,
      },
      "horizontalScrollbarTest": {
        "enabled": false,
        "failWarn": false,
      },
      "pageLoadTimeTest": {
        "enabled": true,
        "failWarn": false,
        "pageLoadTimeThreshold": 10,
      },
      "renderedHtmlTest": {
        "enabled": true,
        "failWarn": false,
      },
    },
    "url": "https://localhost/tests/fixtures/site/consoleLog.html",
  },
  {
    "rawUrl": "localhost/tests/fixtures/site/dynamicContent.html",
    "settings": {
      "brokenLinkTest": {
        "checkWithBrowser": false,
        "enabled": true,
        "failWarn": false,
        "ignoreDuplicates": true,
      },
      "consoleErrorTest": {
        "enabled": true,
        "failWarn": false,
      },
      "consoleOutputTest": {
        "enabled": false,
        "failWarn": false,
      },
      "externalScriptTest": {
        "enabled": true,
        "failWarn": true,
      },
      "horizontalScrollbarTest": {
        "enabled": false,
        "failWarn": false,
      },
      "pageLoadTimeTest": {
        "enabled": true,
        "failWarn": false,
        "pageLoadTimeThreshold": 10,
      },
      "renderedHtmlTest": {
        "enabled": true,
        "failWarn": false,
      },
    },
    "url": "https://localhost/tests/fixtures/site/dynamicContent.html",
  },
]
`;
