// Vitest Snapshot v1, https://vitest.dev/guide/snapshot.html

exports[`reporter > should write expected JSON and HTML reports > html report 1`] = `
"<!DOCTYPE html>
<html lang="en">

<head>
	<title>Pagean Results</title>
	<style>
		:root {
			/* Default colors */
			--color-text-default: #333333;
			--color-background-data-hover: rgba(255 255 255 / 10%);
			--color-background-summary: #f4f4f4;
			--color-border-summary: #333333;

			/* Test result colors */
			--color-background-passed: #dff2bf;
			--color-text-passed: #44760f;
			--color-background-failed: #ffbaba;
			--color-text-failed: #ad000c;
			--color-background-warning: #fdec96;
			--color-text-warning: #7e6902;
			--color-background-page-error: #f6d5c0;
			--color-text-page-error: #994715;
		}

		html {
			margin: 0;
			padding: 0;
		}

		body {
			color: var(--color-text-default);
			font-family: system-ui, sans-serif;
			font-size: 0.85rem;
			margin: auto;
			max-inline-size: 1000px;
			padding: 1rem;
		}

		ul {
			margin-block: 0;
			margin-inline: 0;
			padding-block: 0;
			padding-inline: 0;
		}

		li {
			list-style: none;
		}

		h1 {
			margin-block: 0;
			margin-inline: 0;
		}

		h2 {
			font-size: 1rem;
		}

		.pre {
			font-family: monospace;
			white-space: pre-wrap;
		}

		.project,
		.started {
			margin: 0;
			padding-block-end: 0.5rem;
		}

		.test-summary {
			display: flex;
			flex-direction: row;
			margin-block-end: 2rem;
			max-inline-size: 75%;
		}

		.summary {
			background-color: var(--color-background-summary);
			border: 1px solid var(--color-border-summary);
			display: inline-block;
			flex: 1 1 10%;
			margin-block: 0;
			margin-inline: 0.25rem;
			padding-block: 0.25rem;
			padding-inline: 0.5rem;
		}

		.summary:first-of-type {
			margin-inline-start: 0;
		}

		.summary:last-of-type {
			margin-inline-end: 0;
		}

		.passed {
			background-color: var(--color-background-passed);
			border: 1px solid var(--color-text-passed);
			color: var(--color-text-passed);
		}

		.failed {
			background-color: var(--color-background-failed);
			border: 1px solid var(--color-text-failed);
			color: var(--color-text-failed);
		}

		.warning {
			background-color: var(--color-background-warning);
			border: 1px solid var(--color-text-warning);
			color: var(--color-text-warning);
		}

		.page-error {
			background-color: var(--color-background-page-error);
			border: 1px solid var(--color-text-page-error);
			color: var(--color-text-page-error);
		}

		.test-results h2 {
			margin-block: 1rem 0;
		}

		details summary .name::after,
		details[open] summary .name::after {
			content: "+";
			font-family: monospace;
			font-weight: bold;
			opacity: 0.8;
    		padding-inline-start: 0.5rem;
		}

		details[open] summary .name::after {
			content: "–";
		}

		summary {
			cursor: pointer;
			list-style: none;
		}

		summary::-webkit-details-marker {
			display: none;
		}

		li.test {
			margin-block: 0.25rem;
			margin-inline: 0;
			padding-block: 0.5rem;
			padding-inline: 1rem;
		}

		.test .header {
			display: flex;
			flex-direction: row;
		}

		.test .header .name {
			flex: 1 1 75%;
		}

		.test .header .result {
			flex: 1 1 25%;
			text-align: end;
		}

		.test .data,
		.test .time,
		.test .error {
			padding-inline-start: 0.75rem;
		}

		.test .data h3 {
			font-size: inherit;
			font-weight: normal;
			margin-block: 0;
			margin-inline: 0;
		}

		.test .data li {
			background-color: inherit;
			border-style: none;
			padding: 0.25rem;
		}

		.test .data li:hover {
			background-color: var(--color-background-data-hover);
			border: 1px dotted;
			border-inline-end: 4px solid;
			padding: calc(0.25rem - 1px);
		}

		.test .data .pre {
			margin-block: 0 0.25rem;
			margin-inline: 0;
		}

		.test .time {
			margin-block: 0.25rem 0;
			margin-inline: 0;
		}
	</style>
</head>

<body>
	<header>
		<h1 id="title">Pagean Results</h1>
	</header>
	<main>
		<h2 class="project">Project: Pagean</h2>
		<section class="started">Started: 2021-05-26T00:35:15.738Z</section>
		<section class="test-summary">
			<div class="summary">URLs: 8</div>
			<div class="summary">Tests: 51</div>
			<div class="summary passed">Passed: 44</div>
			<div class="summary warning">Warning: 1</div>
			<div class="summary failed">Failed: 6</div>
			<div class="summary page-error">Page Errors: </div>
		</section>
		<section class="test-results">
			<h2>URL: tests/fixtures/site/consoleLog.html</h2>
			<ul class="tests">
				<li class="test passed">
					<div class="header">
						<div class="name">should not have console errors</div>
						<div class="result">passed</div>
					</div>
				</li>
				<li class="test failed">
					<details>
						<summary class="header" title="Show/hide details">
							<div class="name">should not have console output</div>
							<div class="result">failed</div>
						</summary>
						<div class="data">
							<h3>Messages:</h3>
							<ul>
								<li>
									<div class="pre">{
  &quot;type&quot;: &quot;log&quot;,
  &quot;text&quot;: &quot;This is a test&quot;,
  &quot;location&quot;: {
    &quot;url&quot;: &quot;file:///C:/Users/someone/Documents/Projects/NodeJS/Packages/Pagean/tests/fixtures/site/consoleLog.html&quot;,
    &quot;lineNumber&quot;: 9,
    &quot;columnNumber&quot;: 16
  }
}</div>
								</li>
							</ul>
						</div>
					</details>
				</li>
				<li class="test passed">
					<div class="header">
						<div class="name">should not have a horizontal scrollbar</div>
						<div class="result">passed</div>
					</div>
				</li>
				<li class="test passed">
					<div class="header">
						<div class="name">should load page within 3 sec</div>
						<div class="result">passed</div>
					</div>
				</li>
				<li class="test passed">
					<div class="header">
						<div class="name">should have valid rendered HTML</div>
						<div class="result">passed</div>
					</div>
				</li>
				<li class="test passed">
					<div class="header">
						<div class="name">should not have external scripts</div>
						<div class="result">passed</div>
					</div>
				</li>
				<li class="test passed">
					<div class="header">
						<div class="name">should not have broken links</div>
						<div class="result">passed</div>
					</div>
				</li>
			</ul>
			<h2>URL: tests/fixtures/site/dynamicContent.html</h2>
			<ul class="tests">
				<li class="test passed">
					<div class="header">
						<div class="name">should not have console errors</div>
						<div class="result">passed</div>
					</div>
				</li>
				<li class="test passed">
					<div class="header">
						<div class="name">should not have console output</div>
						<div class="result">passed</div>
					</div>
				</li>
				<li class="test passed">
					<div class="header">
						<div class="name">should not have a horizontal scrollbar</div>
						<div class="result">passed</div>
					</div>
				</li>
				<li class="test passed">
					<div class="header">
						<div class="name">should load page within 3 sec</div>
						<div class="result">passed</div>
					</div>
				</li>
				<li class="test passed">
					<div class="header">
						<div class="name">should have valid rendered HTML</div>
						<div class="result">passed</div>
					</div>
				</li>
				<li class="test passed">
					<div class="header">
						<div class="name">should not have external scripts</div>
						<div class="result">passed</div>
					</div>
				</li>
				<li class="test passed">
					<div class="header">
						<div class="name">should not have broken links</div>
						<div class="result">passed</div>
					</div>
				</li>
			</ul>
			<h2>URL: tests/fixtures/site/horizontalScrollbar.html</h2>
			<ul class="tests">
				<li class="test passed">
					<div class="header">
						<div class="name">should not have console errors</div>
						<div class="result">passed</div>
					</div>
				</li>
				<li class="test passed">
					<div class="header">
						<div class="name">should not have console output</div>
						<div class="result">passed</div>
					</div>
				</li>
				<li class="test failed">
					<div class="header">
						<div class="name">should not have a horizontal scrollbar</div>
						<div class="result">failed</div>
					</div>
				</li>
				<li class="test passed">
					<div class="header">
						<div class="name">should load page within 3 sec</div>
						<div class="result">passed</div>
					</div>
				</li>
				<li class="test passed">
					<div class="header">
						<div class="name">should have valid rendered HTML</div>
						<div class="result">passed</div>
					</div>
				</li>
				<li class="test passed">
					<div class="header">
						<div class="name">should not have external scripts</div>
						<div class="result">passed</div>
					</div>
				</li>
				<li class="test passed">
					<div class="header">
						<div class="name">should not have broken links</div>
						<div class="result">passed</div>
					</div>
				</li>
			</ul>
			<h2>URL: tests/fixtures/site/htmlError.html</h2>
			<ul class="tests">
				<li class="test passed">
					<div class="header">
						<div class="name">should not have console errors</div>
						<div class="result">passed</div>
					</div>
				</li>
				<li class="test passed">
					<div class="header">
						<div class="name">should not have console output</div>
						<div class="result">passed</div>
					</div>
				</li>
				<li class="test passed">
					<div class="header">
						<div class="name">should not have a horizontal scrollbar</div>
						<div class="result">passed</div>
					</div>
				</li>
				<li class="test passed">
					<div class="header">
						<div class="name">should load page within 3 sec</div>
						<div class="result">passed</div>
					</div>
				</li>
				<li class="test failed">
					<details>
						<summary class="header" title="Show/hide details">
							<div class="name">should have valid rendered HTML</div>
							<div class="result">failed</div>
						</summary>
						<div class="data">
							<h3>Messages:</h3>
							<ul>
								<li>
									<div class="pre">{
  &quot;type&quot;: &quot;error&quot;,
  &quot;message&quot;: &quot;The id value [ div1 ] must be unique.&quot;,
  &quot;raw&quot;: &quot; id&#x3D;\\&quot;div1\\&quot;&quot;,
  &quot;evidence&quot;: &quot;    &lt;div id&#x3D;\\&quot;div1\\&quot;&gt;&lt;/div&gt;&quot;,
  &quot;line&quot;: 7,
  &quot;col&quot;: 9,
  &quot;rule&quot;: {
    &quot;id&quot;: &quot;id-unique&quot;,
    &quot;description&quot;: &quot;The value of id attributes must be unique.&quot;,
    &quot;link&quot;: &quot;https://github.com/thedaviddias/HTMLHint/wiki/id-unique&quot;
  }
}</div>
								</li>
								<li>
									<div class="pre">{
  &quot;type&quot;: &quot;warning&quot;,
  &quot;message&quot;: &quot;An alt attribute must be present on &lt;img&gt; elements.&quot;,
  &quot;raw&quot;: &quot;&lt;img&gt;&quot;,
  &quot;evidence&quot;: &quot;    &lt;img&gt;&quot;,
  &quot;line&quot;: 8,
  &quot;col&quot;: 9,
  &quot;rule&quot;: {
    &quot;id&quot;: &quot;alt-require&quot;,
    &quot;description&quot;: &quot;The alt attribute of an &lt;img&gt; element must be present and alt attribute of area[href] and input[type&#x3D;image] must have a value.&quot;,
    &quot;link&quot;: &quot;https://github.com/thedaviddias/HTMLHint/wiki/alt-require&quot;
  }
}</div>
								</li>
							</ul>
						</div>
					</details>
				</li>
				<li class="test passed">
					<div class="header">
						<div class="name">should not have external scripts</div>
						<div class="result">passed</div>
					</div>
				</li>
				<li class="test passed">
					<div class="header">
						<div class="name">should not have broken links</div>
						<div class="result">passed</div>
					</div>
				</li>
			</ul>
			<h2>URL: tests/fixtures/site/scriptError404.html</h2>
			<ul class="tests">
				<li class="test failed">
					<details>
						<summary class="header" title="Show/hide details">
							<div class="name">should not have console errors</div>
							<div class="result">failed</div>
						</summary>
						<div class="data">
							<h3>Messages:</h3>
							<ul>
								<li>
									<div class="pre">{
  &quot;type&quot;: &quot;error&quot;,
  &quot;text&quot;: &quot;Failed to load resource: net::ERR_NAME_NOT_RESOLVED&quot;,
  &quot;location&quot;: {
    &quot;url&quot;: &quot;https://this.url.does.not.exist/file.js&quot;
  }
}</div>
								</li>
							</ul>
						</div>
					</details>
				</li>
				<li class="test passed">
					<div class="header">
						<div class="name">should not have a horizontal scrollbar</div>
						<div class="result">passed</div>
					</div>
				</li>
				<li class="test passed">
					<div class="header">
						<div class="name">should load page within 3 sec</div>
						<div class="result">passed</div>
					</div>
				</li>
				<li class="test passed">
					<div class="header">
						<div class="name">should have valid rendered HTML</div>
						<div class="result">passed</div>
					</div>
				</li>
				<li class="test passed">
					<div class="header">
						<div class="name">should not have broken links</div>
						<div class="result">passed</div>
					</div>
				</li>
			</ul>
			<h2>URL: tests/fixtures/site/slowLoad.html</h2>
			<ul class="tests">
				<li class="test passed">
					<div class="header">
						<div class="name">should not have console errors</div>
						<div class="result">passed</div>
					</div>
				</li>
				<li class="test passed">
					<div class="header">
						<div class="name">should not have console output</div>
						<div class="result">passed</div>
					</div>
				</li>
				<li class="test passed">
					<div class="header">
						<div class="name">should not have a horizontal scrollbar</div>
						<div class="result">passed</div>
					</div>
				</li>
				<li class="test failed">
					<details>
						<summary class="header" title="Show/hide details">
							<div class="name">should load page within 2 sec</div>
							<div class="result">failed</div>
						</summary>
						<div class="time">Load time: 2.808s</div>
					</details>
				</li>
				<li class="test passed">
					<div class="header">
						<div class="name">should have valid rendered HTML</div>
						<div class="result">passed</div>
					</div>
				</li>
				<li class="test passed">
					<div class="header">
						<div class="name">should not have broken links</div>
						<div class="result">passed</div>
					</div>
				</li>
			</ul>
			<h2>URL: tests/fixtures/site/externalScripts.html</h2>
			<ul class="tests">
				<li class="test passed">
					<div class="header">
						<div class="name">should not have a horizontal scrollbar</div>
						<div class="result">passed</div>
					</div>
				</li>
				<li class="test passed">
					<div class="header">
						<div class="name">should load page within 3 sec</div>
						<div class="result">passed</div>
					</div>
				</li>
				<li class="test passed">
					<div class="header">
						<div class="name">should have valid rendered HTML</div>
						<div class="result">passed</div>
					</div>
				</li>
				<li class="test warning">
					<details>
						<summary class="header" title="Show/hide details">
							<div class="name">should not have external scripts</div>
							<div class="result">warning</div>
						</summary>
						<div class="data">
							<h3>Messages:</h3>
							<ul>
								<li>
									<div class="pre">{
  &quot;url&quot;: &quot;https://code.jquery.com/jquery-3.4.1.slim.min.js&quot;,
  &quot;localFile&quot;: &quot;pagean-external-scripts\\\\code.jquery.com\\\\jquery-3.4.1.slim.min.js&quot;
}</div>
								</li>
								<li>
									<div class="pre">{
  &quot;url&quot;: &quot;https://cdn.jsdelivr.net/npm/popper.js@1.16.0/dist/umd/popper.min.js&quot;,
  &quot;localFile&quot;: &quot;pagean-external-scripts\\\\cdn.jsdelivr.net\\\\npm\\\\popper.js@1.16.0\\\\dist\\\\umd\\\\popper.min.js&quot;
}</div>
								</li>
								<li>
									<div class="pre">{
  &quot;url&quot;: &quot;file://cdn.jsdelivr.net/npm/bootstrap@4.6.0/dist/js/bootstrap.min.js&quot;,
  &quot;localFile&quot;: &quot;pagean-external-scripts\\\\cdn.jsdelivr.net\\\\npm\\\\bootstrap@4.6.0\\\\dist\\\\js\\\\bootstrap.min.js&quot;
}</div>
								</li>
								<li>
									<div class="pre">{
  &quot;url&quot;: &quot;https://code.jquery.com/jquery-3.4.1.slim.min.js&quot;,
  &quot;localFile&quot;: &quot;pagean-external-scripts\\\\code.jquery.com\\\\jquery-3.4.1.slim.min.js&quot;
}</div>
								</li>
							</ul>
						</div>
					</details>
				</li>
				<li class="test passed">
					<div class="header">
						<div class="name">should not have broken links</div>
						<div class="result">passed</div>
					</div>
				</li>
			</ul>
			<h2>URL: tests/fixtures/site/brokenLinks.html</h2>
			<ul class="tests">
				<li class="test passed">
					<div class="header">
						<div class="name">should not have console errors</div>
						<div class="result">passed</div>
					</div>
				</li>
				<li class="test passed">
					<div class="header">
						<div class="name">should not have console output</div>
						<div class="result">passed</div>
					</div>
				</li>
				<li class="test passed">
					<div class="header">
						<div class="name">should not have a horizontal scrollbar</div>
						<div class="result">passed</div>
					</div>
				</li>
				<li class="test passed">
					<div class="header">
						<div class="name">should load page within 3 sec</div>
						<div class="result">passed</div>
					</div>
				</li>
				<li class="test passed">
					<div class="header">
						<div class="name">should have valid rendered HTML</div>
						<div class="result">passed</div>
					</div>
				</li>
				<li class="test passed">
					<div class="header">
						<div class="name">should not have external scripts</div>
						<div class="result">passed</div>
					</div>
				</li>
				<li class="test failed">
					<details>
						<summary class="header" title="Show/hide details">
							<div class="name">should not have broken links</div>
							<div class="result">failed</div>
						</summary>
						<div class="data">
							<h3>Messages:</h3>
							<ul>
								<li>
									<div class="pre">{
  &quot;href&quot;: &quot;file:///C:/Users/someone/Documents/Projects/NodeJS/Packages/Pagean/tests/fixtures/site/consoleLog.html&quot;,
  &quot;status&quot;: 404
}</div>
								</li>
								<li>
									<div class="pre">{
  &quot;href&quot;: &quot;file:///C:/Users/someone/Documents/Projects/NodeJS/Packages/Pagean/tests/fixtures/site/brokenLinks.html#notlinked&quot;,
  &quot;status&quot;: &quot;#notlinked Not Found&quot;
}</div>
								</li>
								<li>
									<div class="pre">{
  &quot;href&quot;: &quot;https://this.url.does.not.exist/&quot;,
  &quot;status&quot;: &quot;ENOTFOUND&quot;
}</div>
								</li>
							</ul>
						</div>
					</details>
				</li>
			</ul>
		</section>
	</main>
</body>

</html>
"
`;

exports[`reporter > should write expected JSON and HTML reports > json report 1`] = `"{"project":"Pagean","executionStart":"2021-05-26T00:35:15.738Z","summary":{"tests":51,"passed":44,"warning":1,"failed":6},"results":[{"url":"tests/fixtures/site/consoleLog.html","tests":[{"name":"should not have console errors","result":"passed"},{"name":"should not have console output","result":"failed","data":[{"type":"log","text":"This is a test","location":{"url":"file:///C:/Users/someone/Documents/Projects/NodeJS/Packages/Pagean/tests/fixtures/site/consoleLog.html","lineNumber":9,"columnNumber":16}}]},{"name":"should not have a horizontal scrollbar","result":"passed"},{"name":"should load page within 3 sec","result":"passed"},{"name":"should have valid rendered HTML","result":"passed"},{"name":"should not have external scripts","result":"passed"},{"name":"should not have broken links","result":"passed"}]},{"url":"tests/fixtures/site/dynamicContent.html","tests":[{"name":"should not have console errors","result":"passed"},{"name":"should not have console output","result":"passed"},{"name":"should not have a horizontal scrollbar","result":"passed"},{"name":"should load page within 3 sec","result":"passed"},{"name":"should have valid rendered HTML","result":"passed"},{"name":"should not have external scripts","result":"passed"},{"name":"should not have broken links","result":"passed"}]},{"url":"tests/fixtures/site/horizontalScrollbar.html","tests":[{"name":"should not have console errors","result":"passed"},{"name":"should not have console output","result":"passed"},{"name":"should not have a horizontal scrollbar","result":"failed"},{"name":"should load page within 3 sec","result":"passed"},{"name":"should have valid rendered HTML","result":"passed"},{"name":"should not have external scripts","result":"passed"},{"name":"should not have broken links","result":"passed"}]},{"url":"tests/fixtures/site/htmlError.html","tests":[{"name":"should not have console errors","result":"passed"},{"name":"should not have console output","result":"passed"},{"name":"should not have a horizontal scrollbar","result":"passed"},{"name":"should load page within 3 sec","result":"passed"},{"name":"should have valid rendered HTML","result":"failed","data":[{"type":"error","message":"The id value [ div1 ] must be unique.","raw":" id=\\"div1\\"","evidence":"    <div id=\\"div1\\"></div>","line":7,"col":9,"rule":{"id":"id-unique","description":"The value of id attributes must be unique.","link":"https://github.com/thedaviddias/HTMLHint/wiki/id-unique"}},{"type":"warning","message":"An alt attribute must be present on <img> elements.","raw":"<img>","evidence":"    <img>","line":8,"col":9,"rule":{"id":"alt-require","description":"The alt attribute of an <img> element must be present and alt attribute of area[href] and input[type=image] must have a value.","link":"https://github.com/thedaviddias/HTMLHint/wiki/alt-require"}}]},{"name":"should not have external scripts","result":"passed"},{"name":"should not have broken links","result":"passed"}]},{"url":"tests/fixtures/site/scriptError404.html","tests":[{"name":"should not have console errors","result":"failed","data":[{"type":"error","text":"Failed to load resource: net::ERR_NAME_NOT_RESOLVED","location":{"url":"https://this.url.does.not.exist/file.js"}}]},{"name":"should not have a horizontal scrollbar","result":"passed"},{"name":"should load page within 3 sec","result":"passed"},{"name":"should have valid rendered HTML","result":"passed"},{"name":"should not have broken links","result":"passed"}]},{"url":"tests/fixtures/site/slowLoad.html","tests":[{"name":"should not have console errors","result":"passed"},{"name":"should not have console output","result":"passed"},{"name":"should not have a horizontal scrollbar","result":"passed"},{"name":"should load page within 2 sec","result":"failed","data":{"pageLoadTime":2.808}},{"name":"should have valid rendered HTML","result":"passed"},{"name":"should not have broken links","result":"passed"}]},{"url":"tests/fixtures/site/externalScripts.html","tests":[{"name":"should not have a horizontal scrollbar","result":"passed"},{"name":"should load page within 3 sec","result":"passed"},{"name":"should have valid rendered HTML","result":"passed"},{"name":"should not have external scripts","result":"warning","data":[{"url":"https://code.jquery.com/jquery-3.4.1.slim.min.js","localFile":"pagean-external-scripts\\\\code.jquery.com\\\\jquery-3.4.1.slim.min.js"},{"url":"https://cdn.jsdelivr.net/npm/popper.js@1.16.0/dist/umd/popper.min.js","localFile":"pagean-external-scripts\\\\cdn.jsdelivr.net\\\\npm\\\\popper.js@1.16.0\\\\dist\\\\umd\\\\popper.min.js"},{"url":"file://cdn.jsdelivr.net/npm/bootstrap@4.6.0/dist/js/bootstrap.min.js","localFile":"pagean-external-scripts\\\\cdn.jsdelivr.net\\\\npm\\\\bootstrap@4.6.0\\\\dist\\\\js\\\\bootstrap.min.js"},{"url":"https://code.jquery.com/jquery-3.4.1.slim.min.js","localFile":"pagean-external-scripts\\\\code.jquery.com\\\\jquery-3.4.1.slim.min.js"}]},{"name":"should not have broken links","result":"passed"}]},{"url":"tests/fixtures/site/brokenLinks.html","tests":[{"name":"should not have console errors","result":"passed"},{"name":"should not have console output","result":"passed"},{"name":"should not have a horizontal scrollbar","result":"passed"},{"name":"should load page within 3 sec","result":"passed"},{"name":"should have valid rendered HTML","result":"passed"},{"name":"should not have external scripts","result":"passed"},{"name":"should not have broken links","result":"failed","data":[{"href":"file:///C:/Users/someone/Documents/Projects/NodeJS/Packages/Pagean/tests/fixtures/site/consoleLog.html","status":404},{"href":"file:///C:/Users/someone/Documents/Projects/NodeJS/Packages/Pagean/tests/fixtures/site/brokenLinks.html#notlinked","status":"#notlinked Not Found"},{"href":"https://this.url.does.not.exist/","status":"ENOTFOUND"}]}]}]}"`;
