{
  "reporters": ["cli", "json"],
  "urls": [
    {
      "url": "tests/fixtures/site/scriptError404.html",
      "settings": {
        "horizontalScrollbarTest": false,
        "consoleOutputTest": false,
        "consoleErrorTest": true,
        "renderedHtmlTest": false,
        "pageLoadTimeTest": false,
        "externalScriptTest": false,
        "brokenLinkTest": false
      }
    }
  ]
}
