{
  "urls": [
    {
      "url": "tests/fixtures/site/externalScripts.html",
      "settings": {
        "horizontalScrollbarTest": false,
        "consoleOutputTest": false,
        "consoleErrorTest": false,
        "renderedHtmlTest": false,
        "pageLoadTimeTest": false,
        "externalScriptTest": {
          "enabled": true,
          "failWarn": false
        },
        "brokenLinkTest": false
      }
    }
  ]
}
