{
  "puppeteerLaunchOptions": {
    "args": ["--enable-features=NetworkServiceInProcess2"]
  },
  "settings": {
    "horizontalScrollbarTest": true,
    "consoleOutputTest": true,
    "consoleErrorTest": true,
    "renderedHtmlTest": true,
    "pageLoadTimeTest": {
      "enabled": true,
      "pageLoadTimeThreshold": 2
    },
    "brokenLinkTest": true
  },
  "urls": [
    {
      "url": "tests/fixtures/site/consoleLog.html",
      "settings": {
        "consoleOutputTest": false
      }
    },
    "tests/fixtures/site/dynamicContent.html",
    {
      "url": "tests/fixtures/site/horizontalScrollbar.html",
      "settings": {
        "horizontalScrollbarTest": false
      }
    },
    {
      "url": "tests/fixtures/site/htmlError.html",
      "settings": {
        "renderedHtmlTest": false
      }
    },
    {
      "url": "tests/fixtures/site/scriptError404.html",
      "settings": {
        "consoleOutputTest": false,
        "consoleErrorTest": false,
        "externalScriptTest": false,
        "pageLoadTimeTest": false
      }
    },
    {
      "url": "tests/fixtures/site/slowLoad.html",
      "settings": {
        "pageLoadTimeTest": false,
        "externalScriptTest": false
      }
    },
    {
      "url": "tests/fixtures/site/externalScripts.html",
      "settings": {
        "consoleOutputTest": false,
        "consoleErrorTest": false,
        "externalScriptTest": false
      }
    },
    {
      "url": "tests/fixtures/site/brokenLinks.html",
      "settings": {
        "brokenLinkTest": false
      }
    }
  ]
}
