{
  "puppeteerLaunchOptions": {
    "args": ["--enable-features=NetworkServiceInProcess2"]
  },
  "urls": [
    {
      "url": "tests/fixtures/site/brokenLinks.html",
      "settings": {
        "horizontalScrollbarTest": false,
        "consoleOutputTest": false,
        "consoleErrorTest": false,
        "renderedHtmlTest": false,
        "pageLoadTimeTest": false,
        "externalScriptTest": false,
        "brokenLinkTest": {
          "enabled": true,
          "failWarn": false,
          "checkWithBrowser": true,
          "ignoredLinks": ["https://this.url.is.ignored"]
        }
      }
    }
  ]
}
