{
  "puppeteerLaunchOptions": {
    "args": ["--enable-features=NetworkServiceInProcess2"]
  },
  "sitemap": {
    "find": "https://somewhere.test/",
    "replace": "tests/fixtures/site/",
    "url": "tests/fixtures/sitemaps/integration-sitemap.xml"
  },
  "urls": ["tests/fixtures/site/consoleLog.html"]
}
